10479  cd class3_homework
10480  touch 541700.txt
10481  git switch --help
10482  git branch
10483  git switch -c hw3
10484  git add -u
10485  git status
10486  git add -a
10487  git add -A
10488  git status
10489  git commit -m "my evaluation of the course"
10490  git push
10491  git remote -v
10492  git push --set-upstream origin hw3
10493  git fetch upstream
10494  git status
10495  git remote -v
10496  git fetch upstream main
10497  git rebase origin/main
10498  git rebase upstream/main
10499  history | tail -n 20
