   2 git branch                                                                                                        
   3 git branch class3_assignment                                                                                      
   4 git branch                                                                                                        
   5 git switch class3_assignment                                                                                      
   8 git add 543516.txt                                                                                                
   9 git commit -m "Text file added"                                                                                   
  10 git push origin class3_assignment                                                                                 
  11 history | grep git > 543516_commands.txt                                                                          
  13 git add 543516_commands.txt                                                                                       
